# FreeCAD v0.20 build1 Arch module
# http://www.freecadweb.org
mtllib plat-depan-Body.mtl
o Body
usemtl color_cccccc
v -9.0 9.999985 -11.0
v -9.0 -9.999985 -11.0
v -9.0 9.999985 0.0
v -9.0 -9.999985 0.0
v -2.681155 -2.249757 -11.0
v -1.75 -3.031089 -11.0
v -3.288924 -1.19707 -11.0
v -0.607769 -3.446827 -11.0
v -9.0 -9.99999 -11.0
v -9.0 -10.0 -11.0
v -8.457233 -13.078181 -11.0
v -6.8944 -15.785089 -11.0
v -4.5 -17.79423 -11.0
v -1.562834 -18.86327 -11.0
v -3.5 0.0 -11.0
v 0.607769 -3.446827 -11.0
v 1.562834 -18.86327 -11.0
v 4.5 -17.79423 -11.0
v 6.8944 -15.785089 -11.0
v 8.457233 -13.078181 -11.0
v 9.0 -10.0 -11.0
v 9.0 -9.999995 -11.0
v 9.0 -9.99999 -11.0
v 1.75 -3.031089 -11.0
v 9.0 -9.999985 -11.0
v 2.681155 -2.249757 -11.0
v -3.288924 1.19707 -11.0
v -2.681155 2.249757 -11.0
v -1.75 3.031089 -11.0
v 3.288924 -1.19707 -11.0
v -0.607769 3.446827 -11.0
v -9.0 9.99999 -11.0
v 3.5 0.0 -11.0
v -9.0 10.0 -11.0
v -8.45723 13.078177 -11.0
v -6.894394 15.78508 -11.0
v -4.499996 17.794216 -11.0
v -1.562832 18.863255 -11.0
v 0.607769 3.446827 -11.0
v 9.0 9.999985 -11.0
v 3.288924 1.19707 -11.0
v 2.681155 2.249757 -11.0
v 1.75 3.031089 -11.0
v 9.0 9.99999 -11.0
v 1.562832 18.863255 -11.0
v 8.45723 13.078177 -11.0
v 9.0 10.0 -11.0
v 4.499996 17.794216 -11.0
v 6.894394 15.78508 -11.0
v -9.0 9.999995 -11.0
v -9.0 -9.999995 -11.0
v 9.0 9.999995 -11.0
v -9.0 -9.99999 0.0
v -9.0 -9.999995 0.0
v -9.0 -10.0 0.0
v -19.0 -10.0 0.0
v -19.0 10.0 0.0
v -9.0 9.99999 0.0
v -9.0 10.0 0.0
v -9.0 9.999995 0.0
v 9.0 10.0 0.0
v 8.45723 13.078177 0.0
v 6.894394 15.78508 0.0
v 4.499996 17.794216 0.0
v 1.562832 18.863255 0.0
v -1.562832 18.863255 0.0
v -4.499996 17.794216 0.0
v -6.894394 15.78508 0.0
v -8.45723 13.078177 0.0
v 9.0 9.999985 0.0
v 9.0 9.99999 0.0
v 9.0 9.999995 0.0
v 9.0 -9.999985 0.0
v 9.0 -10.0 0.0
v 9.0 -9.999995 0.0
v 9.0 -9.99999 0.0
v 9.0 -10.0 15.0
v 8.559508 -12.781153 15.0
v 7.281153 -15.290068 15.0
v 5.290067 -17.281153 15.0
v 0.0 -19.0 0.1
v 2.781153 -18.559509 15.0
v 0.0 -19.0 15.0
v -2.781153 -18.559509 15.0
v -5.290067 -17.281153 15.0
v -7.281153 -15.290068 15.0
v -8.559508 -12.781153 15.0
v -9.0 -10.0 15.0
v 3.5 0.0 0.0
v 3.288924 1.19707 0.0
v 2.681155 2.249757 0.0
v 1.75 3.031089 0.0
v 0.607769 3.446827 0.0
v -0.607769 3.446827 0.0
v -1.75 3.031089 0.0
v -2.681155 2.249757 0.0
v -3.288924 1.19707 0.0
v -3.5 0.0 0.0
v -3.288924 -1.19707 0.0
v -2.681155 -2.249757 0.0
v -1.75 -3.031089 0.0
v -0.607769 -3.446827 0.0
v 0.607769 -3.446827 0.0
v 1.75 -3.031089 0.0
v 2.681155 -2.249757 0.0
v 3.288924 -1.19707 0.0
v -19.0 -10.0 5.0
v -19.0 -10.0 15.0
v -19.0 10.0 5.0
v -9.0 10.0 15.0
v -19.0 10.0 15.0
v 19.0 -10.0 0.0
v 19.0 10.0 0.0
v -8.5 -10.0 15.0
v -4.25 -7.361216 15.0
v -6.511378 -5.463695 15.0
v -1.476009 -8.370866 15.0
v 1.476009 -8.370866 15.0
v 4.25 -7.361216 15.0
v 8.5 -10.0 15.0
v 6.511378 -5.463695 15.0
v 8.5 0.0 15.0
v 7.987387 -2.907171 15.0
v -8.5 0.0 15.0
v -7.987387 -2.907171 15.0
v 19.0 -10.0 5.0
v 19.0 -10.0 15.0
v 3.5 0.0 0.1
v 3.288924 1.19707 0.1
v 2.681155 2.249757 0.1
v 1.75 3.031089 0.1
v 0.607769 3.446827 0.1
v -0.607769 3.446827 0.1
v -1.75 3.031089 0.1
v -2.681155 2.249757 0.1
v -3.288924 1.19707 0.1
v -3.5 0.0 0.1
v -3.288924 -1.19707 0.1
v -2.681155 -2.249757 0.1
v -1.75 -3.031089 0.1
v -0.607769 -3.446827 0.1
v 0.607769 -3.446827 0.1
v 1.75 -3.031089 0.1
v 2.681155 -2.249757 0.1
v 3.288924 -1.19707 0.1
v -20.0 -10.0 5.275862
v -20.0 -10.0 18.172413
v -9.0 -10.0 15.137931
v -20.0 10.0 5.275862
v -48.806652 -1.604968 13.222525
v -55.25 -10.0 15.0
v -48.373363 -1.16364 13.102997
v -48.095627 -0.611036 13.02638
v -49.354057 -1.892818 13.373533
v -48.0 0.0 13.0
v -49.963234 -1.999662 13.541581
v -48.036755 0.381666 13.010139
v -50.575924 -1.915284 13.7106
v -48.145668 0.749304 13.040185
v -51.133541 -1.647752 13.864425
v -48.463257 1.280008 13.127795
v -51.58276 -1.222651 13.988347
v -48.927799 1.688309 13.255945
v -51.880623 -0.68063 14.070517
v -51.99865 -0.073522 14.103075
v -55.25 10.0 15.0
v -51.925549 0.540616 14.08291
v -51.668312 1.103056 14.011949
v -51.251541 1.560014 13.896976
v -50.715088 1.867793 13.74899
v -50.110252 1.996959 13.582139
v -49.494873 1.935161 13.412379
v -20.0 10.0 18.172413
v -9.0 10.0 15.137931
v -2.781153 18.559509 15.0
v 0.0 19.0 15.0
v 0.0 19.0 0.0
v -2.781153 18.559509 0.0
v -5.290067 17.281153 15.0
v -5.290067 17.281153 0.0
v -7.281153 15.290068 15.0
v -7.281153 15.290068 0.0
v -8.559508 12.781153 15.0
v -8.559508 12.781153 0.0
v 8.559508 12.781153 15.0
v 9.0 10.0 15.0
v 8.559508 12.781153 0.0
v 7.281153 15.290068 15.0
v 7.281153 15.290068 0.0
v 5.290067 17.281153 15.0
v 5.290067 17.281153 0.0
v 2.781153 18.559509 15.0
v 2.781153 18.559509 0.0
v 19.0 10.0 5.0
v 19.0 10.0 15.0
v -30.25 10.0 21.0
v -30.25 -10.0 21.0
v -8.5 10.0 15.0
v 7.987387 2.907171 15.0
v 8.5 0.0 5.0
v 7.987387 2.907171 5.0
v 6.511378 5.463695 15.0
v 6.511378 5.463695 5.0
v 4.25 7.361216 5.0
v 4.25 7.361216 15.0
v 1.476009 8.370866 15.0
v 1.476009 8.370866 5.0
v -1.476009 8.370866 5.0
v -1.476009 8.370866 15.0
v -4.25 7.361216 15.0
v -4.25 7.361216 5.0
v -6.511378 5.463695 15.0
v -6.511378 5.463695 5.0
v -7.987387 2.907171 5.0
v -7.987387 2.907171 15.0
v -8.5 0.0 5.0
v -7.987387 -2.907171 5.0
v -6.511378 -5.463695 5.0
v -4.25 -7.361216 5.0
v -1.476009 -8.370866 5.0
v 1.476009 -8.370866 5.0
v 4.25 -7.361216 5.0
v 6.511378 -5.463695 5.0
v 7.987387 -2.907171 5.0
v 30.25 -10.0 21.0
v 30.25 10.0 21.0
v 20.0 -10.0 18.172413
v 20.0 10.0 18.172413
v 9.0 -10.0 15.137931
v 9.0 10.0 15.137931
v 8.5 10.0 15.0
v 20.0 -10.0 5.275862
v 3.5 0.0 5.0
v 3.288924 1.19707 5.0
v 2.681155 2.249757 5.0
v 1.75 3.031089 5.0
v 0.607769 3.446827 5.0
v -0.607769 3.446827 5.0
v -1.75 3.031089 5.0
v -2.681155 2.249757 5.0
v -3.288924 1.19707 5.0
v -3.5 -0.0 5.0
v -3.288924 -1.19707 5.0
v -2.681155 -2.249757 5.0
v -1.75 -3.031089 5.0
v -0.607769 -3.446827 5.0
v 0.607769 -3.446827 5.0
v 1.75 -3.031089 5.0
v 2.681155 -2.249757 5.0
v 3.288924 -1.19707 5.0
v -55.25 -10.0 21.0
v -55.25 10.0 21.0
v -48.0 0.0 21.0
v -48.120613 0.68404 21.0
v -48.467911 1.285575 21.0
v -49.0 1.732051 21.0
v -49.652702 1.969615 21.0
v -50.347298 1.969615 21.0
v -51.0 1.732051 21.0
v -51.532089 1.285575 21.0
v -51.879387 0.68404 21.0
v -52.0 0.0 21.0
v -51.879387 -0.68404 21.0
v -51.532089 -1.285575 21.0
v -51.0 -1.732051 21.0
v -50.347298 -1.969615 21.0
v -49.652702 -1.969615 21.0
v -49.0 -1.732051 21.0
v -48.467911 -1.285575 21.0
v -48.120613 -0.68404 21.0
v 20.0 10.0 5.275862
v 48.866459 -1.647752 13.239023
v 55.25 -10.0 15.0
v 48.41724 -1.222651 13.115101
v 48.119377 -0.68063 13.032931
v 49.424076 -1.915284 13.392849
v 48.00135 -0.073522 13.000373
v 50.036766 -1.999662 13.561867
v 48.074451 0.540616 13.020538
v 50.645943 -1.892818 13.729915
v 48.331688 1.103056 13.0915
v 51.193348 -1.604968 13.880923
v 48.748459 1.560014 13.206471
v 51.626637 -1.16364 14.000451
v 51.904373 -0.611036 14.077068
v 52.0 0.0 14.103448
v 55.25 10.0 15.0
v 49.284912 1.867793 13.354459
v 49.889748 1.996959 13.52131
v 50.505127 1.935161 13.69107
v 51.072201 1.688309 13.847504
v 51.536743 1.280008 13.975654
v 51.854332 0.749304 14.063264
v 51.963245 0.381666 14.093309
v 51.532089 -1.285575 21.0
v 51.0 -1.732051 21.0
v 55.25 -10.0 21.0
v 51.879387 -0.68404 21.0
v 50.347298 -1.969615 21.0
v 52.0 0.0 21.0
v 49.652702 -1.969615 21.0
v 49.0 -1.732051 21.0
v 55.25 10.0 21.0
v 51.879387 0.68404 21.0
v 51.532089 1.285575 21.0
v 51.0 1.732051 21.0
v 50.347298 1.969615 21.0
v 49.652702 1.969615 21.0
v 49.0 1.732051 21.0
v 48.0 0.0 21.0
v 48.120613 -0.68404 21.0
v 48.467911 -1.285575 21.0
v 48.467911 1.285575 21.0
v 48.120613 0.68404 21.0
vn -1.0 0.0 0.0
vn -1.0 -0.0 0.0
vn 0.0 -0.0 -1.0
vn 0.0 0.0 -1.0
vn 0.0 0.0 -1.0
vn 0.0 0.0 -1.0
vn 0.0 0.0 -1.0
vn 0.0 0.0 -1.0
vn 0.0 0.0 -1.0
vn 0.0 -0.0 -1.0
vn 0.0 0.0 -1.0
vn 0.0 0.0 -1.0
vn 0.0 0.0 -1.0
vn 0.0 0.0 -1.0
vn 0.0 0.0 -1.0
vn 0.0 -0.0 -1.0
vn 0.0 0.0 -1.0
vn 0.0 0.0 -1.0
vn 0.0 0.0 -1.0
vn 0.0 -0.0 -1.0
vn 0.0 0.0 -1.0
vn 0.0 0.0 -1.0
vn 0.0 0.0 -1.0
vn 0.0 0.0 -1.0
vn 0.0 0.0 -1.0
vn 0.0 0.0 -1.0
vn 0.0 0.0 -1.0
vn 0.0 0.0 -1.0
vn 0.0 0.0 -1.0
vn 0.0 0.0 -1.0
vn 0.0 0.0 -1.0
vn 0.0 0.0 -1.0
vn 0.0 0.0 -1.0
vn 0.0 0.0 -1.0
vn 0.0 0.0 -1.0
vn 0.0 0.0 -1.0
vn 0.0 0.0 -1.0
vn 0.0 0.0 -1.0
vn 0.0 0.0 -1.0
vn 0.0 0.0 -1.0
vn 0.0 0.0 -1.0
vn 0.0 0.0 -1.0
vn 0.0 0.0 -1.0
vn 0.0 -0.0 -1.0
vn 0.0 0.0 -1.0
vn 0.0 -0.0 -1.0
vn 0.0 0.0 -1.0
vn 0.0 0.0 -1.0
vn 0.0 0.0 -1.0
vn 0.0 0.0 -1.0
vn 0.0 -0.0 -1.0
vn -0.0 0.0 -1.0
vn -1.0 0.0 0.0
vn -1.0 -0.0 0.0
vn -1.0 -0.0 0.0
vn -1.0 0.0 0.0
vn -1.0 -0.0 0.0
vn -1.0 0.0 0.0
vn 0.0 0.0 -1.0
vn 0.0 0.0 -1.0
vn 0.0 0.0 -1.0
vn 0.0 0.0 -1.0
vn 0.0 0.0 -1.0
vn 0.0 0.0 -1.0
vn 0.0 0.0 -1.0
vn -0.0 0.0 0.0
vn -1.0 0.0 0.0
vn -1.0 -0.0 0.0
vn -1.0 -0.0 0.0
vn -1.0 0.0 0.0
vn -1.0 -0.0 0.0
vn -1.0 0.0 0.0
vn 0.9848074913024902 0.1736496239900589 -0.0
vn 0.9848074913024902 0.1736496239900589 0.0
vn 0.8660247921943665 0.5000010132789612 0.0
vn 0.8660247921943665 0.5000010132789612 -0.0
vn 0.6427870392799377 0.7660449147224426 0.0
vn 0.6427870392799377 0.7660449147224426 -0.0
vn 0.34201958775520325 0.9396927952766418 0.0
vn 0.34201958775520325 0.9396927952766418 -0.0
vn 0.0 1.0 0.0
vn 0.0 1.0 -0.0
vn -0.34201958775520325 0.9396927952766418 0.0
vn -0.34201958775520325 0.9396927952766418 0.0
vn -0.6427870392799377 0.7660449147224426 0.0
vn -0.6427870392799377 0.7660449147224426 0.0
vn -0.8660247921943665 0.5000010132789612 0.0
vn -0.8660247921943665 0.5000010132789612 0.0
vn -0.9848074913024902 0.1736496239900589 0.0
vn -0.9848074913024902 0.1736496239900589 0.0
vn 1.0 0.0 0.0
vn 1.0 -0.0 0.0
vn 1.0 -0.0 0.0
vn 1.0 0.0 0.0
vn 1.0 -0.0 0.0
vn 1.0 0.0 0.0
vn 1.0 0.0 0.0
vn 1.0 -0.0 0.0
vn 1.0 0.0 0.0
vn 1.0 -0.0 0.0
vn 1.0 -0.0 0.0
vn 1.0 0.0 0.0
vn 1.0 -0.0 0.0
vn 1.0 0.0 0.0
vn 0.9848077297210693 -0.17364822328090668 0.0
vn 0.9876883029937744 -0.1564345806837082 0.0
vn 0.9859877228736877 -0.16680602729320526 -0.0019729086197912693
vn 0.8660205602645874 -0.499997079372406 -0.003362567164003849
vn 0.8910053968429565 -0.45398974418640137 0.0016815555281937122
vn 0.6427814960479736 -0.7660369277000427 -0.004415570292621851
vn 0.7071036696434021 -0.7071037888526917 0.002944499021396041
vn -0.0 -0.9999241232872009 -0.01231710147112608
vn 0.3417913019657135 -0.9390646815299988 0.036555349826812744
vn 0.2272767722606659 -0.9737347364425659 -0.013635595329105854
vn 0.4539875090122223 -0.8910000920295715 0.0037873380351811647
vn -0.3417913615703583 -0.9390646815299988 0.03655535727739334
vn 0.15643423795700073 -0.9876883625984192 0.0
vn -0.15643423795700073 -0.9876883625984192 -0.0
vn -0.2272767871618271 -0.9737347364425659 -0.013635596260428429
vn -0.6427814960479736 -0.7660369277000427 -0.004415570292621851
vn -0.4539875090122223 -0.8910000920295715 0.0037873396649956703
vn -0.8660205602645874 -0.499997079372406 -0.003362566465511918
vn -0.7071036696434021 -0.7071037888526917 0.0029444999527186155
vn -0.9848077297210693 -0.17364822328090668 0.0
vn -0.8910053968429565 -0.45398974418640137 0.0016815555281937122
vn -0.9859877228736877 -0.16680601239204407 -0.0019729093182832003
vn -0.9876883029937744 -0.1564345806837082 0.0
vn -0.9848077297210693 -0.17364813387393951 0.0
vn -0.9848077297210693 -0.17364813387393951 0.0
vn -0.8660253882408142 -0.5000001192092896 0.0
vn -0.6427876353263855 -0.7660444378852844 0.0
vn -0.8660253882408142 -0.5000001192092896 0.0
vn -0.6427876353263855 -0.7660444378852844 0.0
vn -0.3420202136039734 -0.9396926164627075 0.0
vn -0.3420202136039734 -0.9396926164627075 0.0
vn 0.0 -1.0 0.0
vn 0.0 -1.0 0.0
vn 0.3420202136039734 -0.9396926164627075 0.0
vn 0.3420202136039734 -0.9396926164627075 0.0
vn 0.6427876353263855 -0.7660444378852844 0.0
vn 0.6427876353263855 -0.7660444378852844 0.0
vn 0.8660253882408142 -0.5000001192092896 0.0
vn 0.9848077297210693 -0.17364813387393951 0.0
vn 0.8660253882408142 -0.5000001192092896 0.0
vn 0.9848077297210693 0.17364813387393951 -0.0
vn 0.9848077297210693 -0.17364813387393951 0.0
vn 0.9848077297210693 0.17364813387393951 -0.0
vn 0.8660253882408142 0.5000001192092896 -0.0
vn 0.8660253882408142 0.5000001192092896 0.0
vn 0.6427876353263855 0.7660444378852844 -0.0
vn 0.6427876353263855 0.7660444378852844 0.0
vn 0.3420202136039734 0.9396926164627075 -0.0
vn 0.3420202136039734 0.9396926164627075 0.0
vn 0.0 1.0 -0.0
vn 0.0 1.0 0.0
vn -0.3420202136039734 0.9396926164627075 0.0
vn -0.3420202136039734 0.9396926164627075 0.0
vn -0.6427876353263855 0.7660444378852844 0.0
vn -0.6427876353263855 0.7660444378852844 0.0
vn -0.8660253882408142 0.5000001192092896 0.0
vn -0.8660253882408142 0.5000001192092896 0.0
vn -0.9848077297210693 0.17364813387393951 0.0
vn -0.9848077297210693 0.17364813387393951 0.0
vn 0.0 -1.0 -0.0
vn 0.0 -1.0 0.0
vn -0.0 -1.0 0.0
vn -1.0 0.0 0.0
vn -1.0 0.0 0.0
vn -0.0 1.0 0.0
vn 0.0 1.0 0.0
vn -0.0 1.0 0.0
vn 0.0 0.0 -1.0
vn 0.0 0.0 -1.0
vn 0.0 0.0 -1.0
vn 0.0 0.0 -1.0
vn 0.0 0.0 -1.0
vn 0.0 0.0 -1.0
vn 0.0 0.0 -1.0
vn 0.0 0.0 -1.0
vn 0.0 0.0 1.0
vn 0.0 0.0 1.0
vn 0.0 0.0 1.0
vn 0.0 0.0 1.0
vn 0.0 0.0 1.0
vn 0.0 0.0 1.0
vn 0.0 0.0 1.0
vn 0.0 0.0 1.0
vn 0.0 0.0 1.0
vn 0.0 0.0 1.0
vn 0.0 0.0 1.0
vn 0.0 0.0 1.0
vn 0.0 0.0 1.0
vn 0.0 0.0 1.0
vn 0.0 0.0 1.0
vn 0.0 0.0 1.0
vn 0.0 0.0 1.0
vn 0.0 -0.0 1.0
vn 0.0 0.0 1.0
vn 0.0 0.0 1.0
vn 0.0 0.0 1.0
vn 0.0 -1.0 -0.0
vn -0.0 -1.0 -0.0
vn -0.0 -1.0 0.0
vn -0.9848077893257141 -0.1736481487751007 0.0
vn -0.9848077893257141 -0.1736481487751007 0.0
vn -0.8660253286361694 -0.5000001192092896 0.0
vn -0.8660253286361694 -0.5000001192092896 0.0
vn -0.6427876353263855 -0.7660443782806396 0.0
vn -0.6427876353263855 -0.7660443782806396 0.0
vn -0.3420202136039734 -0.9396926164627075 0.0
vn -0.3420202136039734 -0.9396926164627075 0.0
vn 0.0 -1.0 0.0
vn 0.0 -1.0 0.0
vn 0.3420202136039734 -0.9396926164627075 0.0
vn 0.3420202136039734 -0.9396926164627075 0.0
vn 0.6427876353263855 -0.7660443782806396 0.0
vn 0.6427876353263855 -0.7660443782806396 0.0
vn 0.8660253286361694 -0.5000001192092896 0.0
vn 0.8660253286361694 -0.5000001192092896 0.0
vn 0.9848077893257141 -0.1736481487751007 0.0
vn 0.9848077893257141 -0.1736481487751007 0.0
vn 0.9848077893257141 0.1736481487751007 -0.0
vn 0.9848077893257141 0.1736481487751007 0.0
vn 0.8660253286361694 0.5000001192092896 -0.0
vn 0.8660253286361694 0.5000001192092896 0.0
vn 0.6427876353263855 0.7660443782806396 -0.0
vn 0.6427876353263855 0.7660443782806396 0.0
vn 0.3420202136039734 0.9396926164627075 -0.0
vn 0.3420202136039734 0.9396926164627075 0.0
vn 0.0 1.0 -0.0
vn 0.0 1.0 0.0
vn -0.3420202136039734 0.9396926164627075 0.0
vn -0.3420202136039734 0.9396926164627075 0.0
vn -0.6427876353263855 0.7660443782806396 0.0
vn -0.6427876353263855 0.7660443782806396 0.0
vn -0.8660253286361694 0.5000001192092896 0.0
vn -0.8660253286361694 0.5000001192092896 0.0
vn -0.9848077893257141 0.1736481487751007 0.0
vn -0.9848077893257141 0.1736481487751007 0.0
vn 0.0 -1.0 0.0
vn -0.0 -1.0 0.0
vn 0.0 -1.0 0.0
vn 0.0 -1.0 0.0
vn -0.26592913269996643 0.0 -0.9639925956726074
vn -0.26592913269996643 -0.0 -0.9639925956726074
vn -0.2659290134906769 -1.24266010814722e-08 -0.9639926552772522
vn -0.2659289538860321 9.839576620152002e-08 -0.9639926552772522
vn -0.26592910289764404 -3.4221409350720933e-07 -0.9639925956726074
vn -0.2659296691417694 5.660369311044633e-07 -0.9639924168586731
vn -0.2659290134906769 0.0 -0.9639926552772522
vn -0.26592889428138733 3.435050075495383e-07 -0.9639926552772522
vn -0.26592761278152466 -1.0668218237697147e-06 -0.9639929533004761
vn -0.2659292221069336 6.44537749394658e-07 -0.9639925360679626
vn -0.2659301161766052 7.091225597832818e-07 -0.9639922976493835
vn -0.26592931151390076 1.0171030453420826e-06 -0.9639924764633179
vn -0.26592817902565 -4.689557329129457e-07 -0.9639928340911865
vn -0.26592883467674255 -7.071829486449133e-07 -0.963992714881897
vn -0.2659289538860321 -7.832535686702613e-08 -0.9639926552772522
vn -0.2659291625022888 6.305906481429702e-07 -0.9639925956726074
vn -0.26592978835105896 2.996418970724335e-07 -0.9639924168586731
vn -0.265927255153656 -6.827227139183378e-07 -0.9639931321144104
vn -0.2659277617931366 5.045442321716109e-07 -0.9639929533004761
vn -0.2659275233745575 5.875231749996601e-07 -0.9639930725097656
vn -0.26593017578125 -5.590309797298687e-07 -0.9639922976493835
vn -0.26592817902565 4.78962363104074e-07 -0.9639928340911865
vn -0.2659287750720978 8.350901481435358e-08 -0.9639926552772522
vn -0.26592904329299927 0.0 -0.9639925360679626
vn -0.26592904329299927 0.0 -0.9639926552772522
vn -0.2659290134906769 -7.530719869919267e-08 -0.9639925956726074
vn -0.2659292221069336 -0.0 -0.9639926552772522
vn 0.0 1.0 0.0
vn 0.0 1.0 0.0
vn 0.0 1.0 0.0
vn 0.0 1.0 0.0
vn -0.15643425285816193 0.987688422203064 0.0
vn -0.15643425285816193 0.987688422203064 0.0
vn -0.45399075746536255 0.8910064101219177 0.0
vn -0.45399075746536255 0.8910064101219177 0.0
vn -0.7071067094802856 0.70710688829422 0.0
vn -0.7071067094802856 0.70710688829422 0.0
vn -0.8910065293312073 0.4539903700351715 0.0
vn -0.8910065293312073 0.4539903700351715 0.0
vn -0.9876883029937744 0.1564345806837082 0.0
vn -0.9876883029937744 0.1564345806837082 0.0
vn 0.9876883029937744 0.1564345806837082 0.0
vn 0.9876883029937744 0.1564345806837082 0.0
vn 0.8910065293312073 0.4539903700351715 0.0
vn 0.8910065293312073 0.4539903700351715 0.0
vn 0.7071067094802856 0.70710688829422 0.0
vn 0.7071067094802856 0.70710688829422 0.0
vn 0.45399075746536255 0.8910064101219177 0.0
vn 0.45399075746536255 0.8910064101219177 0.0
vn 0.15643425285816193 0.987688422203064 0.0
vn 0.15643425285816193 0.987688422203064 0.0
vn 1.0 0.0 0.0
vn 1.0 0.0 0.0
vn 0.0 1.0 0.0
vn -0.0 1.0 0.0
vn 0.0 1.0 0.0
vn 0.0 -1.0 0.0
vn 0.26592907309532166 0.0 0.9639925360679626
vn 0.26592907309532166 0.0 0.9639925360679626
vn 0.2659289240837097 -1.2536386151396073e-08 0.9639925956726074
vn 0.2659286856651306 0.0 0.9639926552772522
vn 0.2659289240837097 0.0 0.9639926552772522
vn 0.2659289240837097 1.2536386151396073e-08 0.9639925956726074
vn 0.2659286856651306 0.0 0.9639926552772522
vn -0.9848077297210693 -0.17364820837974548 -0.0
vn -0.9848077297210693 -0.17364820837974548 0.0
vn -0.8660253882408142 -0.4999999701976776 0.0
vn -0.6427876949310303 -0.7660443782806396 0.0
vn -0.8660253882408142 -0.4999999701976776 -0.0
vn -0.6427876949310303 -0.7660443782806396 0.0
vn -0.34202006459236145 -0.9396926164627075 0.0
vn 0.0 -1.0 0.0
vn -0.34202006459236145 -0.9396926164627075 -0.0
vn -0.0 -1.0 0.0
vn 0.34202006459236145 -0.9396926164627075 0.0
vn 0.34202006459236145 -0.9396926164627075 0.0
vn 0.6427876949310303 -0.7660443782806396 0.0
vn 0.8660253882408142 -0.4999999701976776 0.0
vn 0.6427876949310303 -0.7660443782806396 0.0
vn 0.9848077297210693 -0.17364820837974548 0.0
vn 0.8660253882408142 -0.4999999701976776 0.0
vn 0.9848077297210693 -0.17364820837974548 0.0
vn 0.9848077297210693 0.17364820837974548 0.0
vn 0.9848077297210693 0.17364820837974548 -6.385104755609102e-18
vn 0.8660253882408142 0.4999999701976776 0.0
vn 0.8660253882408142 0.4999999701976776 0.0
vn 0.6427876949310303 0.7660443782806396 0.0
vn 0.6427876949310303 0.7660443782806396 0.0
vn 0.34202006459236145 0.9396926164627075 0.0
vn 0.34202006459236145 0.9396926164627075 0.0
vn 0.0 1.0 0.0
vn -0.0 1.0 0.0
vn -0.34202006459236145 0.9396926164627075 0.0
vn -0.34202006459236145 0.9396926164627075 0.0
vn -0.6427876949310303 0.7660443782806396 0.0
vn -0.6427876949310303 0.7660443782806396 0.0
vn -0.8660253882408142 0.4999999701976776 0.0
vn -0.8660253882408142 0.4999999701976776 0.0
vn -0.9848077297210693 0.17364820837974548 0.0
vn -0.9848077297210693 0.17364820837974548 0.0
vn -0.26592907309532166 0.0 0.9639925360679626
vn -0.26592907309532166 0.0 0.9639925360679626
vn -0.2659289240837097 0.0 0.9639925956726074
vn -0.2659286856651306 0.0 0.9639926552772522
vn -0.2659289240837097 0.0 0.9639926552772522
vn -0.2659289240837097 0.0 0.9639925956726074
vn -0.2659286856651306 0.0 0.9639926552772522
vn 0.0 -1.0 0.0
vn 0.0 -1.0 0.0
vn 0.0 -1.0 -0.0
vn 0.0 -1.0 0.0
vn 0.0 -1.0 0.0
vn -0.9848077297210693 -0.1736481487751007 0.0
vn -0.9848077297210693 -0.1736481487751007 0.0
vn -0.8660253286361694 -0.5000001192092896 0.0
vn -0.8660253286361694 -0.5000001192092896 0.0
vn -0.6427876949310303 -0.7660444378852844 0.0
vn -0.6427876949310303 -0.7660444378852844 0.0
vn -0.3420202136039734 -0.9396925568580627 0.0
vn -0.3420202136039734 -0.9396925568580627 0.0
vn 0.0 -1.0 0.0
vn 0.0 -1.0 0.0
vn 0.3420202136039734 -0.9396925568580627 0.0
vn 0.3420202136039734 -0.9396925568580627 0.0
vn 0.6427876949310303 -0.7660444378852844 0.0
vn 0.6427876949310303 -0.7660444378852844 0.0
vn 0.8660253286361694 -0.5000001192092896 0.0
vn 0.8660253286361694 -0.5000001192092896 0.0
vn 0.9848077297210693 -0.1736481487751007 -3.0379663833888035e-17
vn 0.9848077297210693 -0.1736481487751007 0.0
vn 0.9848077297210693 0.1736481487751007 -0.0
vn 0.9848077297210693 0.1736481487751007 0.0
vn 0.6427876949310303 0.7660444378852844 -0.0
vn 0.8660253286361694 0.5000001192092896 -0.0
vn 0.8660253286361694 0.5000001192092896 0.0
vn 0.6427876949310303 0.7660444378852844 -0.0
vn 0.3420202136039734 0.9396925568580627 -0.0
vn 0.3420202136039734 0.9396925568580627 0.0
vn 0.0 1.0 -0.0
vn 0.0 1.0 0.0
vn -0.3420202136039734 0.9396925568580627 0.0
vn -0.3420202136039734 0.9396925568580627 0.0
vn -0.6427876949310303 0.7660444378852844 0.0
vn -0.6427876949310303 0.7660444378852844 0.0
vn -0.8660253286361694 0.5000001192092896 0.0
vn -0.8660253286361694 0.5000001192092896 0.0
vn -0.9848077297210693 0.1736481487751007 0.0
vn -0.9848077297210693 0.1736481487751007 0.0
vn 0.0 -1.0 0.0
vn 0.0 -1.0 0.0
vn 0.0 -1.0 0.0
vn 0.0 1.0 0.0
vn 0.0 1.0 0.0
vn 0.0 1.0 0.0
vn -1.0 0.0 -0.0
vn -1.0 -0.0 0.0
vn -0.9953951835632324 -0.09585700184106827 0.0
vn -0.9587941765785217 -0.28410086035728455 0.000688592903316021
vn -0.9848012328147888 -0.17364461719989777 -0.003764554625377059
vn -0.6601532697677612 -0.7511309385299683 0.00014090132026467472
vn -0.8580976128578186 -0.5134865641593933 -0.00014417455531656742
vn -0.8660237789154053 -0.5000009536743164 -0.0013736134860664606
vn -0.3987921178340912 -0.9170401692390442 0.0014617546694353223
vn -0.6427863836288452 -0.7660436630249023 -0.001665993593633175
vn -0.09924910217523575 -0.9950595498085022 0.002453974913805723
vn -0.34201934933662415 -0.9396886229515076 -0.0028472973499447107
vn 0.2096620351076126 -0.9777689576148987 0.0030957702547311783
vn -0.0 -0.9999932646751404 -0.0036861151456832886
vn 0.49833419919013977 -0.8669785261154175 0.0033507179468870163
vn 0.34201779961586 -0.9396843314170837 -0.004152464680373669
vn 0.7392434477806091 -0.673430860042572 0.0031785760074853897
vn 0.6427816152572632 -0.7660379409790039 -0.004209431819617748
vn 0.9095191359519958 -0.4156539738178253 0.0025487709790468216
vn 0.8660182952880859 -0.4999977946281433 -0.0038225832395255566
vn 0.9929949045181274 -0.11814872920513153 0.0014539133990183473
vn 0.9848037958145142 -0.17364507913589478 -0.0029716535937041044
vn 0.8763905167579651 0.4816010594367981 8.070823241723701e-05
vn 0.9816212058067322 0.19083967804908752 -8.116014942061156e-05
vn 0.9848067760467529 0.17364560067653656 -0.0016582708340138197
vn 0.6875650882720947 0.7261211276054382 0.001547656487673521
vn 0.8660232424736023 0.5000006556510925 -0.0017712695989757776
vn 0.43313586711883545 0.9013250470161438 0.0025420377496629953
vn 0.6427844166755676 0.7660412788391113 -0.002979719778522849
vn 0.34201836585998535 0.9396858811378479 -0.0037231859751045704
vn 0.13726234436035156 0.9905299544334412 0.003077789908275008
vn 0.0 0.9999918937683105 -0.004028513096272945
vn -0.17190004885196686 0.985109269618988 0.003188508562743664
vn -0.3420180678367615 0.9396851658821106 -0.003930564969778061
vn -0.4647873342037201 0.8854175209999084 0.002912945579737425
vn -0.6427834630012512 0.7660401463508606 -0.0034626382403075695
vn -0.7132656574249268 0.700890064239502 0.0022826336789876223
vn -0.8934236168861389 0.44921332597732544 0.0013132375897839665
vn -0.8660215735435486 0.49999964237213135 -0.00264813588000834
vn -0.984807014465332 0.17364566028118134 -0.0014961507404223084
vn -0.9879744052886963 0.1546175479888916 0.0
vn 0.0 1.0 0.0
vn 0.0 0.0 1.0
vn 0.0 0.0 1.0
vn 0.0 0.0 1.0
vn 0.0 0.0 1.0
vn 0.0 0.0 1.0
vn 0.0 0.0 1.0
vn 0.0 0.0 1.0
vn 0.0 0.0 1.0
vn 0.0 0.0 1.0
vn 0.0 0.0 1.0
vn 0.0 0.0 1.0
vn 0.0 0.0 1.0
vn 0.0 0.0 1.0
vn 0.0 0.0 1.0
vn 0.0 0.0 1.0
vn 0.0 0.0 1.0
vn 0.0 0.0 1.0
vn 0.0 0.0 1.0
vn 0.0 0.0 1.0
vn 0.0 -0.0 1.0
vn 0.0 -0.0 1.0
vn 0.26592913269996643 0.0 -0.9639925956726074
vn 0.26592913269996643 0.0 -0.9639925956726074
vn 0.2659289836883545 -9.992204041964214e-08 -0.9639925956726074
vn 0.2659289836883545 1.1475071204358755e-07 -0.9639925956726074
vn 0.2659291923046112 -8.164073506122804e-07 -0.9639925360679626
vn 0.26592981815338135 7.012927198957186e-07 -0.9639923572540283
vn 0.2659290134906769 0.0 -0.9639925956726074
vn 0.26592889428138733 1.618955820958945e-06 -0.963992714881897
vn 0.2659287452697754 -1.0302186836952387e-07 -0.9639925956726074
vn 0.26592838764190674 -8.202350159081107e-07 -0.963992714881897
vn 0.26592791080474854 -7.300513402697106e-07 -0.9639929533004761
vn 0.26592904329299927 0.0 -0.9639925360679626
vn 0.26592934131622314 1.5951842158301588e-07 -0.9639925360679626
vn 0.2659292221069336 0.0 -0.9639925956726074
vn 0.2659289240837097 -6.88088590550251e-08 -0.9639925956726074
vn 0.2659294307231903 1.6116588597014925e-07 -0.9639924764633179
vn 0.26592835783958435 -2.563247960551962e-07 -0.963992714881897
vn 0.26592978835105896 -6.594942192350572e-07 -0.9639924168586731
vn 0.2659287750720978 1.3851546043497365e-07 -0.963992714881897
vn 0.2659289240837097 5.4658212178537724e-08 -0.9639926552772522
vn 0.26592886447906494 7.001465718303734e-08 -0.963992714881897
vn 0.2659294903278351 -2.5803458925111045e-07 -0.9639924764633179
vn 0.2659282386302948 3.2123307391884737e-07 -0.9639928936958313
vn 0.2659305930137634 -6.17653995504952e-07 -0.963992178440094
vn 0.26592522859573364 1.3534166782847024e-06 -0.9639936685562134
vn 0.2659290134906769 0.0 -0.9639926552772522
vn 0.26592910289764404 0.0 -0.9639925956726074
vn 0.0 1.0 0.0
vn -0.0 1.0 0.0
vn 0.0 1.0 0.0
vn 0.0 1.0 -0.0
vn 0.0 0.0 1.0
vn 0.0 0.0 1.0
vn 0.0 0.0 1.0
vn 0.0 0.0 1.0
vn 0.0 0.0 1.0
vn 0.0 0.0 1.0
vn 0.0 0.0 1.0
vn 0.0 0.0 1.0
vn 0.0 0.0 1.0
vn 0.0 0.0 1.0
vn 0.0 0.0 1.0
vn 0.0 0.0 1.0
vn 0.0 0.0 1.0
vn 0.0 0.0 1.0
vn 0.0 0.0 1.0
vn 0.0 0.0 1.0
vn 0.0 0.0 1.0
vn 0.0 0.0 1.0
vn 0.0 0.0 1.0
vn 0.0 0.0 1.0
vn 0.0 0.0 1.0
vn 0.0 0.0 1.0
vn 0.0 0.0 1.0
vn 0.0 0.0 1.0
vn 0.0 0.0 1.0
vn 0.0 0.0 1.0
vn 0.0 0.0 1.0
vn 0.0 0.0 1.0
vn 0.0 0.0 1.0
vn 0.0 0.0 1.0
vn 0.0 0.0 1.0
vn 0.0 0.0 1.0
vn 0.0 0.0 1.0
vn 0.0 0.0 1.0
vn 0.0 0.0 1.0
vn 0.0 0.0 1.0
vn 0.0 0.0 1.0
vn 0.0 0.0 1.0
vn 0.0 0.0 1.0
vn 0.0 0.0 1.0
vn 0.0 0.0 1.0
vn 0.0 0.0 1.0
vn 0.0 0.0 1.0
vn 0.0 0.0 1.0
vn 0.0 0.0 1.0
vn 0.0 0.0 1.0
vn 0.0 0.0 1.0
vn 0.0 0.0 1.0
vn 0.0 0.0 1.0
vn 0.0 0.0 1.0
vn 0.0 0.0 1.0
vn 0.0 0.0 1.0
vn 0.0 0.0 1.0
vn 0.0 0.0 1.0
vn 0.0 0.0 1.0
vn 0.0 0.0 1.0
vn 0.0 0.0 1.0
vn 0.0 0.0 1.0
vn 0.0 0.0 1.0
vn 0.0 0.0 1.0
vn 0.0 0.0 1.0
vn 0.0 0.0 1.0
vn 0.0 0.0 1.0
vn 0.0 0.0 1.0
vn 0.0 -0.0 1.0
vn 0.0 -0.0 1.0
vn 0.0 -0.0 1.0
vn 0.0 -0.0 1.0
vn 0.0 -0.0 1.0
vn 0.0 -0.0 1.0
vn 0.0 -0.0 1.0
vn 0.0 0.0 1.0
vn 0.0 0.0 1.0
vn 0.0 0.0 1.0
vn 0.0 0.0 1.0
vn 0.0 0.0 1.0
vn 0.0 0.0 1.0
vn 0.0 0.0 1.0
vn 0.0 0.0 1.0
vn 0.0 0.0 1.0
vn 0.0 1.0 0.0
vn 0.0 1.0 -0.0
vn 0.0 1.0 0.0
vn 0.0 1.0 -0.0
vn 0.0 -1.0 -0.0
vn 0.0 -1.0 0.0
vn 0.0 -1.0 0.0
vn 1.0 0.0 -0.0
vn 1.0 0.0 0.0
vn -0.9953951239585876 -0.09585700184106827 0.0
vn -0.9588270783424377 -0.28398963809013367 0.0007913165609352291
vn -0.984798789024353 -0.17364419996738434 -0.004354935605078936
vn -0.6601998209953308 -0.7510900497436523 0.0001578453229740262
vn -0.8580753803253174 -0.5135237574577332 -0.00016153263277374208
vn -0.8660234808921814 -0.5000007152557373 -0.001576203154399991
vn -0.3994959890842438 -0.9167335629463196 0.0015736707719042897
vn -0.6427862644195557 -0.766043484210968 -0.0018037817208096385
vn -0.10060685873031616 -0.9949231147766113 0.002517582615837455
vn -0.342019259929657 -0.9396883845329285 -0.0029558641836047173
vn 0.20804905891418457 -0.9781137704849243 0.003018204588443041
vn -0.0 -0.9999933242797852 -0.003656133310869336
vn 0.49699288606643677 -0.867749035358429 0.0031141461804509163
vn 0.3420180678367615 -0.9396851062774658 -0.0039381892420351505
vn 0.738490104675293 -0.674258291721344 0.002840701723471284
vn 0.6427825689315796 -0.7660390138626099 -0.0038364827632904053
vn 0.9092923998832703 -0.41615185141563416 0.0022196935024112463
vn 0.8660196661949158 -0.4999985694885254 -0.003377688815817237
vn 0.9929846525192261 -0.11823640763759613 0.0012543040793389082
vn 0.9848048686981201 -0.1736452728509903 -0.002576015656813979
vn 0.8763808608055115 0.48161861300468445 7.020627526799217e-05
vn 0.9816227555274963 0.19083185493946075 -7.059391646180302e-05
vn 0.9848071932792664 0.17364567518234253 -0.0014296884182840586
vn 0.6871388554573059 0.7265247702598572 0.001382215297780931
vn 0.8660234808921814 0.5000007748603821 -0.0015751034952700138
vn 0.4320363998413086 0.901853084564209 0.0023618468549102545
vn 0.642784833908081 0.7660418152809143 -0.0027396073564887047
vn 0.3420185446739197 0.9396864175796509 -0.003567670239135623
vn 0.13561686873435974 0.9907568097114563 0.0030003038700670004
vn 0.0 0.9999918937683105 -0.004039499908685684
vn -0.17362862825393677 0.9848057627677917 0.0032705962657928467
vn -0.34201785922050476 0.9396845102310181 -0.004123239312320948
vn -0.4660939574241638 0.8847296237945557 0.003134581260383129
vn -0.6427826881408691 0.766039252281189 -0.003782871412113309
vn -0.7139201164245605 0.7002224326133728 0.002554833423346281
vn -0.8660207390785217 0.49999916553497314 -0.0029876662883907557
vn -0.8935803174972534 0.44890081882476807 0.0015086859930306673
vn -0.9879743456840515 0.1546175479888916 0.0
vn -0.9848066568374634 0.17364558577537537 -0.001723219989798963
f 1//1 2//1 3//1 
f 3//2 2//2 4//2 
f 5//3 6//3 2//3 
f 2//4 7//4 5//4 
f 2//5 8//5 9//5 
f 10//6 8//6 11//6 
f 11//7 8//7 12//7 
f 12//8 8//8 13//8 
f 13//9 8//9 14//9 
f 6//10 8//10 2//10 
f 2//11 15//11 7//11 
f 14//12 16//12 17//12 
f 17//13 16//13 18//13 
f 18//14 16//14 19//14 
f 19//15 16//15 20//15 
f 8//16 16//16 14//16 
f 16//17 21//17 20//17 
f 16//18 22//18 21//18 
f 16//19 23//19 22//19 
f 24//20 25//20 16//20 
f 16//21 25//21 23//21 
f 24//22 26//22 25//22 
f 27//23 1//23 28//23 
f 15//24 1//24 27//24 
f 2//25 1//25 15//25 
f 1//26 29//26 28//26 
f 26//27 30//27 25//27 
f 1//28 31//28 29//28 
f 32//29 31//29 1//29 
f 30//30 33//30 25//30 
f 34//31 35//31 31//31 
f 35//32 36//32 31//32 
f 36//33 37//33 31//33 
f 31//34 38//34 39//34 
f 37//35 38//35 31//35 
f 33//36 40//36 25//36 
f 41//37 40//37 33//37 
f 42//38 40//38 41//38 
f 43//39 40//39 42//39 
f 39//40 40//40 43//40 
f 39//41 44//41 40//41 
f 38//42 45//42 39//42 
f 39//43 46//43 47//43 
f 45//44 48//44 39//44 
f 39//45 49//45 46//45 
f 48//46 49//46 39//46 
f 50//47 34//47 31//47 
f 50//48 31//48 32//48 
f 51//49 9//49 8//49 
f 51//50 8//50 10//50 
f 52//51 44//51 39//51 
f 52//52 39//52 47//52 
f 2//53 9//53 4//53 
f 4//54 9//54 53//54 
f 53//55 51//55 54//55 
f 9//56 51//56 53//56 
f 54//57 10//57 55//57 
f 51//58 10//58 54//58 
f 56//59 54//59 55//59 
f 56//60 53//60 54//60 
f 56//61 4//61 53//61 
f 57//62 3//62 56//62 
f 56//63 3//63 4//63 
f 57//64 58//64 3//64 
f 57//65 59//65 58//65 
f 60//66 58//66 59//66 
f 34//67 50//67 59//67 
f 59//68 50//68 60//68 
f 60//69 32//69 58//69 
f 50//70 32//70 60//70 
f 58//71 1//71 3//71 
f 32//72 1//72 58//72 
f 47//73 46//73 61//73 
f 61//74 46//74 62//74 
f 62//75 49//75 63//75 
f 46//76 49//76 62//76 
f 63//77 48//77 64//77 
f 49//78 48//78 63//78 
f 64//79 45//79 65//79 
f 48//80 45//80 64//80 
f 65//81 38//81 66//81 
f 45//82 38//82 65//82 
f 66//83 37//83 67//83 
f 38//84 37//84 66//84 
f 67//85 36//85 68//85 
f 37//86 36//86 67//86 
f 68//87 35//87 69//87 
f 36//88 35//88 68//88 
f 69//89 34//89 59//89 
f 35//90 34//90 69//90 
f 40//91 44//91 70//91 
f 70//92 44//92 71//92 
f 71//93 52//93 72//93 
f 44//94 52//94 71//94 
f 72//95 47//95 61//95 
f 52//96 47//96 72//96 
f 25//97 40//97 73//97 
f 73//98 40//98 70//98 
f 21//99 22//99 74//99 
f 74//100 22//100 75//100 
f 75//101 23//101 76//101 
f 22//102 23//102 75//102 
f 76//103 25//103 73//103 
f 23//104 25//104 76//104 
f 74//105 20//105 21//105 
f 77//106 78//106 74//106 
f 74//107 78//107 20//107 
f 20//108 79//108 19//108 
f 78//109 79//109 20//109 
f 19//110 80//110 18//110 
f 79//111 80//111 19//111 
f 17//112 81//112 14//112 
f 18//113 81//113 17//113 
f 18//114 82//114 81//114 
f 80//115 82//115 18//115 
f 81//116 13//116 14//116 
f 82//117 83//117 81//117 
f 83//118 84//118 81//118 
f 81//119 84//119 13//119 
f 13//120 85//120 12//120 
f 84//121 85//121 13//121 
f 12//122 86//122 11//122 
f 85//123 86//123 12//123 
f 11//124 55//124 10//124 
f 86//125 87//125 11//125 
f 11//126 87//126 55//126 
f 87//127 88//127 55//127 
f 41//128 33//128 89//128 
f 41//129 89//129 90//129 
f 42//130 90//130 91//130 
f 42//131 91//131 92//131 
f 42//132 41//132 90//132 
f 43//133 42//133 92//133 
f 39//134 92//134 93//134 
f 39//135 43//135 92//135 
f 31//136 93//136 94//136 
f 31//137 39//137 93//137 
f 29//138 94//138 95//138 
f 29//139 31//139 94//139 
f 28//140 95//140 96//140 
f 28//141 29//141 95//141 
f 27//142 96//142 97//142 
f 27//143 97//143 98//143 
f 27//144 28//144 96//144 
f 15//145 98//145 99//145 
f 15//146 27//146 98//146 
f 7//147 15//147 99//147 
f 5//148 99//148 100//148 
f 5//149 7//149 99//149 
f 6//150 100//150 101//150 
f 6//151 5//151 100//151 
f 8//152 101//152 102//152 
f 8//153 6//153 101//153 
f 16//154 102//154 103//154 
f 16//155 8//155 102//155 
f 24//156 16//156 103//156 
f 24//157 103//157 104//157 
f 26//158 24//158 104//158 
f 26//159 104//159 105//159 
f 30//160 26//160 105//160 
f 30//161 105//161 106//161 
f 30//162 106//162 89//162 
f 33//163 30//163 89//163 
f 88//164 107//164 55//164 
f 55//165 107//165 56//165 
f 88//166 108//166 107//166 
f 57//167 56//167 107//167 
f 57//168 107//168 109//168 
f 109//169 110//169 59//169 
f 109//170 59//170 57//170 
f 111//171 110//171 109//171 
f 73//172 70//172 112//172 
f 71//173 113//173 70//173 
f 70//174 113//174 112//174 
f 72//175 61//175 113//175 
f 72//176 113//176 71//176 
f 76//177 73//177 112//177 
f 76//178 112//178 75//178 
f 75//179 112//179 74//179 
f 114//180 88//180 87//180 
f 115//181 116//181 114//181 
f 115//182 114//182 87//182 
f 117//183 87//183 86//183 
f 117//184 86//184 85//184 
f 117//185 85//185 84//185 
f 117//186 84//186 83//186 
f 117//187 115//187 87//187 
f 118//188 83//188 82//188 
f 118//189 82//189 80//189 
f 118//190 80//190 79//190 
f 118//191 117//191 83//191 
f 78//192 118//192 79//192 
f 119//193 118//193 78//193 
f 120//194 119//194 78//194 
f 77//195 120//195 78//195 
f 121//196 119//196 120//196 
f 120//197 122//197 123//197 
f 120//198 123//198 121//198 
f 124//199 114//199 125//199 
f 125//200 114//200 116//200 
f 126//201 74//201 112//201 
f 127//202 77//202 126//202 
f 126//203 77//203 74//203 
f 90//204 89//204 128//204 
f 90//205 128//205 129//205 
f 91//206 129//206 130//206 
f 91//207 90//207 129//207 
f 92//208 130//208 131//208 
f 92//209 91//209 130//209 
f 93//210 131//210 132//210 
f 93//211 92//211 131//211 
f 94//212 132//212 133//212 
f 94//213 93//213 132//213 
f 95//214 133//214 134//214 
f 95//215 94//215 133//215 
f 96//216 134//216 135//216 
f 96//217 95//217 134//217 
f 97//218 135//218 136//218 
f 97//219 96//219 135//219 
f 98//220 136//220 137//220 
f 98//221 97//221 136//221 
f 99//222 137//222 138//222 
f 99//223 98//223 137//223 
f 100//224 138//224 139//224 
f 100//225 99//225 138//225 
f 101//226 139//226 140//226 
f 101//227 100//227 139//227 
f 102//228 140//228 141//228 
f 102//229 101//229 140//229 
f 103//230 141//230 142//230 
f 103//231 102//231 141//231 
f 104//232 103//232 142//232 
f 104//233 142//233 143//233 
f 105//234 104//234 143//234 
f 105//235 143//235 144//235 
f 106//236 105//236 144//236 
f 106//237 144//237 145//237 
f 89//238 106//238 145//238 
f 89//239 145//239 128//239 
f 107//240 108//240 146//240 
f 108//241 147//241 146//241 
f 88//242 148//242 108//242 
f 108//243 148//243 147//243 
f 149//244 109//244 107//244 
f 149//245 107//245 146//245 
f 150//246 146//246 151//246 
f 150//247 152//247 146//247 
f 153//248 146//248 152//248 
f 154//249 150//249 151//249 
f 155//250 149//250 146//250 
f 155//251 146//251 153//251 
f 156//252 154//252 151//252 
f 157//253 149//253 155//253 
f 158//254 156//254 151//254 
f 159//255 149//255 157//255 
f 160//256 158//256 151//256 
f 161//257 149//257 159//257 
f 162//258 160//258 151//258 
f 163//259 149//259 161//259 
f 164//260 162//260 151//260 
f 165//261 164//261 151//261 
f 166//262 167//262 165//262 
f 166//263 168//263 167//263 
f 166//264 169//264 168//264 
f 166//265 170//265 169//265 
f 166//266 171//266 170//266 
f 166//267 172//267 171//267 
f 166//268 163//268 172//268 
f 166//269 149//269 163//269 
f 166//270 165//270 151//270 
f 111//271 109//271 149//271 
f 173//272 111//272 149//272 
f 174//273 110//273 111//273 
f 174//274 111//274 173//274 
f 175//275 176//275 177//275 
f 175//276 177//276 178//276 
f 179//277 178//277 180//277 
f 179//278 175//278 178//278 
f 181//279 180//279 182//279 
f 181//280 179//280 180//280 
f 183//281 182//281 184//281 
f 183//282 181//282 182//282 
f 110//283 184//283 59//283 
f 110//284 183//284 184//284 
f 185//285 186//285 61//285 
f 185//286 61//286 187//286 
f 188//287 187//287 189//287 
f 188//288 185//288 187//288 
f 190//289 189//289 191//289 
f 190//290 188//290 189//290 
f 192//291 191//291 193//291 
f 192//292 190//292 191//292 
f 176//293 193//293 177//293 
f 176//294 192//294 193//294 
f 112//295 113//295 194//295 
f 112//296 194//296 126//296 
f 61//297 194//297 113//297 
f 186//298 195//298 194//298 
f 186//299 194//299 61//299 
f 88//300 114//300 148//300 
f 196//301 197//301 147//301 
f 173//302 196//302 147//302 
f 124//303 147//303 148//303 
f 124//304 148//304 114//304 
f 124//305 173//305 147//305 
f 174//306 173//306 124//306 
f 198//307 174//307 124//307 
f 122//308 199//308 200//308 
f 200//309 199//309 201//309 
f 201//310 202//310 203//310 
f 203//311 202//311 204//311 
f 199//312 202//312 201//312 
f 202//313 205//313 204//313 
f 204//314 206//314 207//314 
f 207//315 206//315 208//315 
f 205//316 206//316 204//316 
f 206//317 209//317 208//317 
f 208//318 210//318 211//318 
f 209//319 210//319 208//319 
f 211//320 212//320 213//320 
f 213//321 212//321 214//321 
f 210//322 212//322 211//322 
f 214//323 215//323 216//323 
f 212//324 215//324 214//324 
f 215//325 124//325 216//325 
f 216//326 125//326 217//326 
f 124//327 125//327 216//327 
f 217//328 116//328 218//328 
f 125//329 116//329 217//329 
f 218//330 115//330 219//330 
f 116//331 115//331 218//331 
f 219//332 117//332 220//332 
f 115//333 117//333 219//333 
f 220//334 118//334 221//334 
f 117//335 118//335 220//335 
f 118//336 119//336 221//336 
f 221//337 119//337 222//337 
f 222//338 119//338 223//338 
f 119//339 121//339 223//339 
f 121//340 123//340 223//340 
f 223//341 123//341 224//341 
f 224//342 123//342 200//342 
f 123//343 122//343 200//343 
f 225//344 226//344 227//344 
f 226//345 228//345 227//345 
f 227//346 122//346 229//346 
f 229//347 122//347 120//347 
f 228//348 122//348 227//348 
f 228//349 230//349 122//349 
f 230//350 231//350 122//350 
f 120//351 77//351 229//351 
f 127//352 126//352 232//352 
f 227//353 127//353 232//353 
f 229//354 77//354 127//354 
f 229//355 127//355 227//355 
f 129//356 128//356 233//356 
f 129//357 233//357 234//357 
f 130//358 234//358 235//358 
f 130//359 129//359 234//359 
f 131//360 235//360 236//360 
f 131//361 130//361 235//361 
f 132//362 236//362 237//362 
f 132//363 131//363 236//363 
f 133//364 237//364 238//364 
f 133//365 132//365 237//365 
f 134//366 238//366 239//366 
f 134//367 133//367 238//367 
f 135//368 239//368 240//368 
f 135//369 134//369 239//369 
f 136//370 240//370 241//370 
f 136//371 135//371 240//371 
f 137//372 241//372 242//372 
f 137//373 136//373 241//373 
f 138//374 242//374 243//374 
f 138//375 137//375 242//375 
f 139//376 244//376 245//376 
f 139//377 243//377 244//377 
f 139//378 138//378 243//378 
f 140//379 139//379 245//379 
f 141//380 245//380 246//380 
f 141//381 140//381 245//381 
f 142//382 246//382 247//382 
f 142//383 141//383 246//383 
f 143//384 142//384 247//384 
f 143//385 247//385 248//385 
f 144//386 143//386 248//386 
f 144//387 248//387 249//387 
f 145//388 144//388 249//388 
f 145//389 249//389 250//389 
f 128//390 145//390 250//390 
f 128//391 250//391 233//391 
f 146//392 197//392 151//392 
f 151//393 197//393 251//393 
f 146//394 147//394 197//394 
f 196//395 149//395 166//395 
f 196//396 166//396 252//396 
f 173//397 149//397 196//397 
f 252//398 166//398 151//398 
f 252//399 151//399 251//399 
f 155//400 253//400 157//400 
f 157//401 254//401 159//401 
f 253//402 254//402 157//402 
f 161//403 255//403 163//403 
f 159//404 255//404 161//404 
f 254//405 255//405 159//405 
f 163//406 256//406 172//406 
f 255//407 256//407 163//407 
f 172//408 257//408 171//408 
f 256//409 257//409 172//409 
f 171//410 258//410 170//410 
f 257//411 258//411 171//411 
f 170//412 259//412 169//412 
f 258//413 259//413 170//413 
f 169//414 260//414 168//414 
f 259//415 260//415 169//415 
f 168//416 261//416 167//416 
f 260//417 261//417 168//417 
f 167//418 262//418 165//418 
f 261//419 262//419 167//419 
f 164//420 263//420 162//420 
f 165//421 263//421 164//421 
f 262//422 263//422 165//422 
f 162//423 264//423 160//423 
f 263//424 264//424 162//424 
f 160//425 265//425 158//425 
f 264//426 265//426 160//426 
f 265//427 266//427 158//427 
f 158//428 266//428 156//428 
f 266//429 267//429 156//429 
f 156//430 267//430 154//430 
f 267//431 268//431 154//431 
f 154//432 268//432 150//432 
f 268//433 269//433 150//433 
f 150//434 269//434 152//434 
f 152//435 270//435 153//435 
f 269//436 270//436 152//436 
f 270//437 253//437 153//437 
f 153//438 253//438 155//438 
f 198//439 110//439 174//439 
f 210//440 198//440 212//440 
f 183//441 110//441 198//441 
f 183//442 198//442 210//442 
f 209//443 183//443 210//443 
f 181//444 183//444 209//444 
f 179//445 181//445 209//445 
f 175//446 179//446 209//446 
f 231//447 205//447 202//447 
f 176//448 209//448 206//448 
f 176//449 175//449 209//449 
f 192//450 176//450 206//450 
f 185//451 206//451 205//451 
f 185//452 231//452 186//452 
f 185//453 205//453 231//453 
f 190//454 192//454 206//454 
f 188//455 206//455 185//455 
f 188//456 190//456 206//456 
f 198//457 124//457 215//457 
f 198//458 215//458 212//458 
f 122//459 231//459 199//459 
f 199//460 231//460 202//460 
f 126//461 194//461 232//461 
f 194//462 271//462 232//462 
f 232//463 272//463 273//463 
f 274//464 272//464 232//464 
f 232//465 275//465 274//465 
f 272//466 276//466 273//466 
f 271//467 277//467 232//467 
f 232//468 277//468 275//468 
f 276//469 278//469 273//469 
f 271//470 279//470 277//470 
f 278//471 280//471 273//471 
f 271//472 281//472 279//472 
f 280//473 282//473 273//473 
f 271//474 283//474 281//474 
f 282//475 284//475 273//475 
f 284//476 285//476 273//476 
f 285//477 286//477 273//477 
f 283//478 287//478 288//478 
f 288//479 287//479 289//479 
f 289//480 287//480 290//480 
f 290//481 287//481 291//481 
f 291//482 287//482 292//482 
f 292//483 287//483 293//483 
f 293//484 287//484 294//484 
f 294//485 287//485 286//485 
f 271//486 287//486 283//486 
f 286//487 287//487 273//487 
f 194//488 195//488 271//488 
f 195//489 228//489 271//489 
f 186//490 230//490 195//490 
f 195//491 230//491 228//491 
f 265//492 264//492 251//492 
f 263//493 251//493 264//493 
f 266//494 265//494 251//494 
f 262//495 251//495 263//495 
f 267//496 266//496 251//496 
f 268//497 267//497 251//497 
f 252//498 257//498 256//498 
f 252//499 258//499 257//499 
f 252//500 259//500 258//500 
f 252//501 260//501 259//501 
f 252//502 261//502 260//502 
f 252//503 262//503 261//503 
f 252//504 251//504 262//504 
f 197//505 269//505 268//505 
f 197//506 270//506 269//506 
f 197//507 253//507 270//507 
f 197//508 268//508 251//508 
f 196//509 254//509 253//509 
f 196//510 255//510 254//510 
f 196//511 256//511 255//511 
f 196//512 252//512 256//512 
f 196//513 253//513 197//513 
f 244//514 218//514 219//514 
f 245//515 219//515 220//515 
f 245//516 244//516 219//516 
f 243//517 217//517 218//517 
f 243//518 218//518 244//518 
f 246//519 220//519 221//519 
f 246//520 245//520 220//520 
f 242//521 216//521 217//521 
f 242//522 217//522 243//522 
f 247//523 246//523 221//523 
f 241//524 214//524 216//524 
f 241//525 216//525 242//525 
f 248//526 221//526 222//526 
f 248//527 247//527 221//527 
f 240//528 213//528 214//528 
f 240//529 214//529 241//529 
f 223//530 249//530 248//530 
f 223//531 248//531 222//531 
f 211//532 240//532 239//532 
f 211//533 239//533 238//533 
f 211//534 213//534 240//534 
f 224//535 250//535 249//535 
f 224//536 249//536 223//536 
f 208//537 211//537 238//537 
f 200//538 233//538 250//538 
f 200//539 250//539 224//539 
f 207//540 238//540 237//540 
f 207//541 237//541 236//541 
f 207//542 208//542 238//542 
f 201//543 234//543 233//543 
f 201//544 233//544 200//544 
f 204//545 207//545 236//545 
f 203//546 204//546 236//546 
f 203//547 236//547 235//547 
f 203//548 235//548 234//548 
f 203//549 234//549 201//549 
f 295//550 296//550 297//550 
f 297//551 298//551 295//551 
f 296//552 299//552 297//552 
f 297//553 300//553 298//553 
f 299//554 301//554 297//554 
f 301//555 302//555 297//555 
f 300//556 303//556 304//556 
f 304//557 303//557 305//557 
f 305//558 303//558 306//558 
f 306//559 303//559 307//559 
f 307//560 303//560 308//560 
f 308//561 303//561 309//561 
f 297//562 303//562 300//562 
f 310//563 225//563 311//563 
f 311//564 225//564 312//564 
f 312//565 225//565 302//565 
f 302//566 225//566 297//566 
f 309//567 226//567 313//567 
f 313//568 226//568 314//568 
f 314//569 226//569 310//569 
f 303//570 226//570 309//570 
f 310//571 226//571 225//571 
f 271//572 226//572 287//572 
f 287//573 226//573 303//573 
f 271//574 228//574 226//574 
f 186//575 231//575 230//575 
f 225//576 232//576 273//576 
f 225//577 273//577 297//577 
f 227//578 232//578 225//578 
f 287//579 303//579 273//579 
f 273//580 303//580 297//580 
f 286//581 300//581 294//581 
f 294//582 304//582 293//582 
f 300//583 304//583 294//583 
f 292//584 305//584 291//584 
f 293//585 305//585 292//585 
f 304//586 305//586 293//586 
f 291//587 306//587 290//587 
f 305//588 306//588 291//588 
f 290//589 307//589 289//589 
f 306//590 307//590 290//590 
f 289//591 308//591 288//591 
f 307//592 308//592 289//592 
f 288//593 309//593 283//593 
f 308//594 309//594 288//594 
f 283//595 313//595 281//595 
f 309//596 313//596 283//596 
f 281//597 314//597 279//597 
f 313//598 314//598 281//598 
f 279//599 310//599 277//599 
f 314//600 310//600 279//600 
f 275//601 311//601 274//601 
f 277//602 311//602 275//602 
f 310//603 311//603 277//603 
f 274//604 312//604 272//604 
f 311//605 312//605 274//605 
f 272//606 302//606 276//606 
f 312//607 302//607 272//607 
f 302//608 301//608 276//608 
f 276//609 301//609 278//609 
f 301//610 299//610 278//610 
f 278//611 299//611 280//611 
f 299//612 296//612 280//612 
f 280//613 296//613 282//613 
f 296//614 295//614 282//614 
f 282//615 295//615 284//615 
f 295//616 298//616 284//616 
f 284//617 298//617 285//617 
f 285//618 300//618 286//618 
f 298//619 300//619 285//619 
